{
  "project_info": {
    "project_number": "170610809019",
    "project_id": "tttn-e1b5d",
    "storage_bucket": "tttn-e1b5d.appspot.com"
  },
  "client": [
    {
      "client_info": {
        "mobilesdk_app_id": "1:170610809019:android:03c2f6e23c20625208b19e",
        "android_client_info": {
          "package_name": "com.example.tttn"
        }
      },
      "oauth_client": [
        {
          "client_id": "170610809019-67ssa132c3qe265v0nci5edbeah8m3ca.apps.googleusercontent.com",
          "client_type": 1,
          "android_info": {
            "package_name": "com.example.tttn",
            "certificate_hash": "0885abb4948b73145153dd4cd9047507bdd7ad8a"
          }
        },
        {
          "client_id": "170610809019-9m9l1n0iqig74a2aipki371avttu51vg.apps.googleusercontent.com",
          "client_type": 3
        }
      ],
      "api_key": [
        {
          "current_key": "AIzaSyCwnHJMnPG9aTdITYNhSgibPHEhBrK05lI"
        }
      ],
      "services": {
        "appinvite_service": {
          "other_platform_oauth_client": [
            {
              "client_id": "170610809019-9m9l1n0iqig74a2aipki371avttu51vg.apps.googleusercontent.com",
              "client_type": 3
            }
          ]
        }
      }
    }
  ],
  "configuration_version": "1"
}